R Workshop 1
…
##             Df Sum Sq Mean Sq F value   Pr(>F)    
## Condition    1  11857   11857   113.4 2.35e-11 ***
## Residuals   28   2927     105                     
## ---
## Signif. codes:  0 '***' 0.001 '**' 0.01 '*' 0.05 '.' 0.1 ' ' 1

Question 2

In this experiment we have one betwen participants factor with three levels - the words were either synonyms for the word Slow, the word Fast or were neutral. We think people might respond more quickly to words that mean Fast and more slowly to words that mean Slow. We want to know whether peoples RTs varied as a function of our factor. We have three conditions (Slow, Fast, Neutral) and Response Time in msec. Our datafile is caled data2. Again, when you import the data remember to convert the Condition column to a factor - this time it has three levels (Slow, Fast, Neutral). Our data file is called data2.

data2 <- read_csv("/Users/andrewstewart/Desktop/Air Work/R analyses/DNEP course/Day One scripts/data2.csv", col_types = cols(Condition = col_factor(levels = c("Fast", 
    "Neutral", "Slow"))))
print (data2)

## # A tibble: 45 x 3
##    Participant Condition Response
##          <int> <fct>        <dbl>
##  1           1 Slow          11.9
##  2           2 Slow          12.4
##  3           3 Slow          12.9
##  4           4 Slow          11.8
##  5           5 Slow          12.3
##  6           6 Slow          12.4
##  7           7 Slow          12.6
##  8           8 Slow          12.2
##  9           9 Slow          13.1
## 10          10 Slow          12.2
## # ... with 35 more rows
…
